{
    "data": {
        "count": 14,
        "next": "https://yandex-scraper.p.rapidapi.com/search/?query=mango&page=2",
        "previous": null,
        "results": [
            {
                "title": "Mango USA | Online fashion",
                "link": "https://shop.mango.com/us",
                "description": "Discover the latest trends in Mango fashion, footwear and accessories. Shop the best outfits for this season at our online store."
            },
            {
                "title": "Home - Mango Fashion Group",
                "link": "https://www.mangofashiongroup.com/en/",
                "description": "Design, attention to detail and efficiency to delight the world. With a history spanning four decades, Mango is one of Europe\u2019s leading fashion brands."
            },
            {
                "title": "MANGO (@mango) \u2022 Instagram photos and videos",
                "link": "https://www.instagram.com/mango/",
                "description": "MANGO Official Account Welcome to the home of Mediterranean style and culture. \ud83d\udcf2 Mention @mango and use #MangoCommunity to be featured. go.mango/shop."
            },
            {
                "title": "Mango (retailer) - Wikipedia",
                "link": "https://en.wikipedia.org/wiki/Mango_(retailer)",
                "description": "Punto Fa, S.L., trading as Mango, is a Spanish clothing design and manufacturing company, founded in Barcelona, Spain, by brothers Isak Andic and Nahman Andic.[1]..."
            },
            {
                "title": "MANGO (@Mango) / Twitter",
                "link": "https://twitter.com/Mango",
                "description": "@Mango. Welcome to the home of Mediterranean style and culture.\u00a0... MANGO\u2019s Tweets. Square profile picture."
            },
            {
                "title": "MANGO | LinkedIn",
                "link": "https://www.linkedin.com/company/mango/",
                "description": "Mango, one of Europe\u2019s leading fashion groups, is a global company with design, creativity and technology at the centre of its business model, and a strategy based on constant..."
            },
            {
                "title": "Mango (@mango) Official TikTok | Watch Mango's Newest...",
                "link": "https://www.tiktok.com/@mango?lang=en",
                "description": "Mango (@mango) on TikTok | 989.9K Likes.\u00a0... Mention @mango and use #MangoCommunity for a chance to be featured."
            },
            {
                "title": "Mango (mangofashion) | Official Pinterest account",
                "link": "https://www.pinterest.co.uk/mangofashion/",
                "description": "go.mango/collection. ; Opens a new tab. \u00b7 Official Mango Pinterest page."
            },
            {
                "title": "Mango",
                "link": "https://tr-tr.facebook.com/mango.com/",
                "description": "Like everyone else that\u2019s commenting , Mango has the worst customer service, the bot kicks you off while waiting for an agent and the same on the phone, worst online shopping..."
            },
            {
                "title": "Mango Just Dropped the Most... | Who What Wear UK",
                "link": "https://www.whowhatwear.co.uk/mango-autumn-winter-2023-selection-collection",
                "description": "The feel of the collection is clear: timeless styles with a '90s edge that hint to Mango's fashion kudos."
            }
        ]
    },
    "error": null
}